Processing PPMI
…
Part I and II

## [1] TRUE

## [1] TRUE

## [1] TRUE

Part III: On-Off state measurements

At semi-annual visits, we do not know the time since last dose, so we can strictly only consider patients with no medication as having off visits at those times.

When we have two on or off measurements due to the time since last medication, we pick the measurement that corresponds to the purpose of the used form.

## # A tibble: 21 x 5
##    EVENT_ID NUPDR3OF NUPDR3ON NUPDRS3 NUPDRS3A
##    <chr>       <int>    <int>   <int>    <int>
##  1 BL             NA       NA    1897      173
##  2 PW             NA       NA      11        2
##  3 RS1            NA       NA       4       NA
##  4 SC             NA       NA    1148       NA
##  5 ST             NA       NA     204        1
##  6 U01            NA       NA       5        1
##  7 V01            NA       NA     507       NA
##  8 V02            NA       NA     955        2
##  9 V03            NA       NA     453        3
## 10 V04            NA       NA    1163      276
## #  with 11 more rows
…
