gmethods-ppmi-data
…
df_varying %>% 
  filter(PDMEDYN,!lag(PDMEDYN)) %>% 
  left_join(df_constant %>% mutate(id=as.character(PATNO))) %>% 
  count(Center,ONLDOPA) %>% spread(ONLDOPA,n) #%>% clipr::write_clip()

## Joining, by = c("id", "PATNO")

## # A tibble: 25 x 3
##    Center `FALSE` `TRUE`
##    <chr>    <int>  <int>
##  1 001         12      4
##  2 006          8     11
##  3 007         12     13
##  4 012          3      8
##  5 018          5     15
##  6 019          5      5
##  7 023          7      3
##  8 028          6      6
##  9 032          4     17
## 10 034         44     14
## #  with 15 more rows
…
